{
  "results": [
    {
      "popularity": 151.429,
      "vote_count": 229,
      "video": false,
      "poster_path": "/jHo2M1OiH9Re33jYtUQdfzPeUkx.jpg",
      "id": 385103,
      "adult": false,
      "backdrop_path": "/fKtYXUhX5fxMxzQfyUcQW9Shik6.jpg",
      "original_language": "en",
      "original_title": "Scoob!",
      "genre_ids": [12, 16, 35, 9648, 10751],
      "title": "Scoob!",
      "vote_average": 7.8,
      "overview": "In Scooby-Doo’s greatest adventure yet, see the never-before told story of how lifelong friends Scooby and Shaggy first met and how they joined forces with young detectives Fred, Velma, and Daphne to form the famous Mystery Inc. Now, with hundreds of cases solved, Scooby and the gang face their biggest, toughest mystery ever: an evil plot to unleash the ghost dog Cerberus upon the world. As they race to stop this global “dogpocalypse,” the gang discovers that Scooby has a secret legacy and an epic destiny greater than anyone ever imagined.",
      "release_date": "2020-07-08"
    },
    {
      "popularity": 150.469,
      "vote_count": 27,
      "video": false,
      "poster_path": "/3ynPnBXQVT2Y0s19fDIPlWKUlxH.jpg",
      "id": 587496,
      "adult": false,
      "backdrop_path": "/2gBMBfmQvHeOQQ5PiKiuxVdGs77.jpg",
      "original_language": "en",
      "original_title": "The Rental",
      "genre_ids": [27, 53],
      "title": "The Rental",
      "vote_average": 5.5,
      "overview": "Two couples on an oceanside getaway grow suspicious that the host of their seemingly perfect rental house may be spying on them. Before long, what should have been a celebratory weekend trip turns into something far more sinister.",
      "release_date": "2020-07-23"
    },
    {
      "popularity": 84.045,
      "vote_count": 205,
      "video": false,
      "poster_path": "/hPkqY2EMqWUnFEoedukilIUieVG.jpg",
      "id": 531876,
      "adult": false,
      "backdrop_path": "/n1RohH2VoK1CdVI2fXvcP19dSlm.jpg",
      "original_language": "en",
      "original_title": "The Outpost",
      "genre_ids": [28, 18, 36, 10752],
      "title": "The Outpost",
      "vote_average": 6.7,
      "overview": "A small unit of U.S. soldiers, alone at the remote Combat Outpost Keating, located deep in the valley of three mountains in Afghanistan, battles to defend against an overwhelming force of Taliban fighters in a coordinated attack. The Battle of Kamdesh, as it was known, was the bloodiest American engagement of the Afghan War in 2009 and Bravo Troop 3-61 CAV became one of the most decorated units of the 19-year conflict.",
      "release_date": "2020-06-24"
    },
    {
      "popularity": 80.645,
      "vote_count": 8519,
      "video": false,
      "poster_path": "/7IiTTgloJzvGI1TAYymCfbfl3vT.jpg",
      "id": 496243,
      "adult": false,
      "backdrop_path": "/ApiBzeaa95TNYliSbQ8pJv4Fje7.jpg",
      "original_language": "ko",
      "original_title": "기생충",
      "genre_ids": [35, 18, 53],
      "title": "Parasite",
      "vote_average": 8.5,
      "overview": "All unemployed, Ki-taek's family takes peculiar interest in the wealthy and glamorous Parks for their livelihood until they get entangled in an unexpected incident.",
      "release_date": "2019-05-30"
    },
    {
      "popularity": 67.743,
      "vote_count": 21,
      "video": false,
      "poster_path": "/7S9RvfMBWSTlUZ4VbxDY7oLeenk.jpg",
      "id": 581392,
      "adult": false,
      "backdrop_path": "/aWsVwgG324dFQS5xHEjB7OCOT9w.jpg",
      "original_language": "ko",
      "original_title": "반도",
      "genre_ids": [28, 27, 53],
      "title": "Peninsula",
      "vote_average": 6,
      "overview": "Peninsula takes place four years after Train to Busan as the characters fight to escape the land that is in ruins due to an unprecedented disaster.",
      "release_date": "2020-07-15"
    },
    {
      "popularity": 59.123,
      "vote_count": 2690,
      "video": false,
      "poster_path": "/f4aul3FyD3jv3v4bul1IrkWZvzq.jpg",
      "id": 508439,
      "adult": false,
      "backdrop_path": "/xFxk4vnirOtUxpOEWgA1MCRfy6J.jpg",
      "original_language": "en",
      "original_title": "Onward",
      "genre_ids": [12, 16, 35, 14, 10751],
      "title": "Onward",
      "vote_average": 7.9,
      "overview": "In a suburban fantasy world, two teenage elf brothers embark on an extraordinary quest to discover if there is still a little magic left out there.",
      "release_date": "2020-02-29"
    },
    {
      "popularity": 56.503,
      "vote_count": 13,
      "video": false,
      "poster_path": "/xqbQtMffXwa3oprse4jiHBMBvdW.jpg",
      "id": 601844,
      "adult": false,
      "backdrop_path": "/qTrpw2ZUvN7ywUu1kieEsvNDrgQ.jpg",
      "original_language": "en",
      "original_title": "Becky",
      "genre_ids": [28, 27, 53],
      "title": "Becky",
      "vote_average": 4.2,
      "overview": "A teenager's weekend at a lake house with her father takes a turn for the worse when a group of convicts wreaks havoc on their lives.",
      "release_date": "2020-07-23"
    },
    {
      "popularity": 56.291,
      "id": 603,
      "video": false,
      "vote_count": 17458,
      "vote_average": 8.1,
      "title": "The Matrix",
      "release_date": "1999-03-30",
      "original_language": "en",
      "original_title": "The Matrix",
      "genre_ids": [28, 878],
      "backdrop_path": "/ByDf0zjLSumz1MP1cDEo2JWVtU.jpg",
      "adult": false,
      "overview": "Set in the 22nd century, The Matrix tells the story of a computer hacker who joins a group of underground insurgents fighting the vast and powerful computers who now rule the earth.",
      "poster_path": "/f89U3ADr1oiB1s9GkdPOEpXUk5H.jpg"
    },
    {
      "popularity": 53.626,
      "vote_count": 8,
      "video": false,
      "poster_path": "/27eA9xGba61LtKr7gJRnhtDDgEP.jpg",
      "id": 651586,
      "adult": false,
      "backdrop_path": "/1iEDKZHREDetZcOoqioZewcHOw9.jpg",
      "original_language": "es",
      "original_title": "Superagente Makey",
      "genre_ids": [28, 35],
      "title": "Superagente Makey",
      "vote_average": 3.3,
      "overview": "Makey is a humble police officer that, unexpectedly, gets caught in the middle of a dangerous international drug operation in the Costa del Sol, Spain.",
      "release_date": "2020-07-17"
    },
    {
      "popularity": 52.176,
      "vote_count": 77,
      "video": false,
      "poster_path": "/3wZ0gxLqsPleneFSTZILmM3BE8Q.jpg",
      "id": 539181,
      "adult": false,
      "backdrop_path": "/vpUUznNzW85xo02H16RaSxRNS1.jpg",
      "original_language": "en",
      "original_title": "Relic",
      "genre_ids": [18, 27],
      "title": "Relic",
      "vote_average": 6.2,
      "overview": "When Edna—the elderly and widowed matriarch of the family—goes missing, her daughter and granddaughter travel to their remote family home to find her. Soon after her return, they start to discover a sinister presence haunting the house and taking control of Edna.",
      "release_date": "2020-07-03"
    },
    {
      "popularity": 50.485,
      "vote_count": 29,
      "video": false,
      "poster_path": "/jBeL6pPUPo0wnyTmiuxPegcibPf.jpg",
      "id": 608195,
      "adult": false,
      "backdrop_path": "/8LI4OEQGY2DIBTQQeRjYVKfL9Dl.jpg",
      "original_language": "en",
      "original_title": "Ghosts of War",
      "genre_ids": [14, 27, 53, 10752],
      "title": "Ghosts of War",
      "vote_average": 4.5,
      "overview": "A group of World War II American soldiers encounter a supernatural enemy as they occupy a French castle previously under Nazi control.",
      "release_date": "2020-07-03"
    },
    {
      "popularity": 48.681,
      "vote_count": 691,
      "video": false,
      "poster_path": "/tI8ocADh22GtQFV28vGHaBZVb0U.jpg",
      "id": 475430,
      "adult": false,
      "backdrop_path": "/o0F8xAt8YuEm5mEZviX5pEFC12y.jpg",
      "original_language": "en",
      "original_title": "Artemis Fowl",
      "genre_ids": [12, 14, 878, 10751],
      "title": "Artemis Fowl",
      "vote_average": 5.8,
      "overview": "Artemis Fowl is a 12-year-old genius and descendant of a long line of criminal masterminds. He soon finds himself in an epic battle against a race of powerful underground fairies who may be behind his father's disappearance.",
      "release_date": "2020-06-12"
    },
    {
      "popularity": 48.088,
      "vote_count": 525,
      "video": false,
      "poster_path": "/mBBBXseq4k4dI63k06XIrsc02j8.jpg",
      "id": 542224,
      "adult": false,
      "backdrop_path": "/jEPEVO48hKQB0EUNFQOSv6qtKNW.jpg",
      "original_language": "en",
      "original_title": "Gretel & Hansel",
      "genre_ids": [14, 27, 53],
      "title": "Gretel & Hansel",
      "vote_average": 6.3,
      "overview": "A long time ago in a distant fairy tale countryside, a young girl leads her little brother into a dark wood in desperate search of food and work, only to stumble upon a nexus of terrifying evil.",
      "release_date": "2020-01-30"
    },
    {
      "popularity": 42.242,
      "vote_count": 404,
      "video": false,
      "poster_path": "/uHpHzbHLSsVmAuuGuQSpyVDZmDc.jpg",
      "id": 556678,
      "adult": false,
      "backdrop_path": "/5GbkL9DDRzq3A21nR7Gkv6cFGjq.jpg",
      "original_language": "en",
      "original_title": "Emma.",
      "genre_ids": [35, 18, 10749],
      "title": "Emma.",
      "vote_average": 6.9,
      "overview": "In 1800s England, a well-meaning but selfish young woman meddles in the love lives of her friends.",
      "release_date": "2020-02-13"
    },
    {
      "popularity": 40.189,
      "vote_count": 10,
      "video": false,
      "poster_path": "/zQFjMmE3K9AX5QrBL1SXIxYQ9jz.jpg",
      "id": 579583,
      "adult": false,
      "backdrop_path": "/5rwcd24GGltKiqdPT4G2dmchLr9.jpg",
      "original_language": "en",
      "original_title": "The King of Staten Island",
      "genre_ids": [35, 18],
      "title": "The King of Staten Island",
      "vote_average": 6.7,
      "overview": "Scott has been a case of arrested development ever since his firefighter father died when he was seven. He’s now reached his mid-20s having achieved little, chasing a dream of becoming a tattoo artist that seems far out of reach. As his ambitious younger sister heads off to college, Scott is still living with his exhausted ER nurse mother and spends his days smoking weed, hanging with the guys — Oscar, Igor and Richie — and secretly hooking up with his childhood friend Kelsey. But when his mother starts dating a loudmouth firefighter named Ray, it sets off a chain of events that will force Scott to grapple with his grief and take his first tentative steps toward moving forward in life.",
      "release_date": "2020-07-22"
    },
    {
      "popularity": 38.673,
      "vote_count": 12,
      "video": false,
      "poster_path": "/kfpgGNDkwqPggRa1j9z1jINK7y3.jpg",
      "id": 633604,
      "adult": false,
      "backdrop_path": "/wzzsI22DJFqeGMq1jvgEM1xWnXJ.jpg",
      "original_language": "nl",
      "original_title": "Yummy",
      "genre_ids": [28, 35, 27],
      "title": "Yummy",
      "vote_average": 7.3,
      "overview": "Yummy is an orgy of blood, violence and fun in which a young couple travel to a shabby Eastern European hospital for plastic surgery. The young woman wants a breast reduction. Her mother comes along for yet another face-lift. Wandering through an abandoned ward the boyfriend stumbles upon a young woman, gagged and strapped to an operating table; she is the result of an experimental rejuvenation treatment. He frees her, but does not realize he just caused the outbreak of a virus that will change doctors, patients and his mother-in-law into bloodthirsty zombies.",
      "release_date": "2020-07-23"
    },
    {
      "popularity": 38.6,
      "vote_count": 1131,
      "video": false,
      "poster_path": "/wxPhn4ef1EAo5njxwBkAEVrlJJG.jpg",
      "id": 514847,
      "adult": false,
      "backdrop_path": "/naXUDz0VGK7aaPlEpsuYW8kNVsr.jpg",
      "original_language": "en",
      "original_title": "The Hunt",
      "genre_ids": [28, 27, 53],
      "title": "The Hunt",
      "vote_average": 6.7,
      "overview": "Twelve strangers wake up in a clearing. They don't know where they are—or how they got there. In the shadow of a dark internet conspiracy theory, ruthless elitists gather at a remote location to hunt humans for sport. But their master plan is about to be derailed when one of the hunted turns the tables on her pursuers.",
      "release_date": "2020-03-11"
    },
    {
      "popularity": 34.689,
      "vote_count": 7,
      "video": false,
      "poster_path": "/ieNGttYsxunAANK9LRZa4LdkEqi.jpg",
      "id": 560204,
      "adult": false,
      "backdrop_path": "/1Q3cxQmZcU7lqwWlruKL2yCC5j2.jpg",
      "original_language": "en",
      "original_title": "Arkansas",
      "genre_ids": [80, 18, 53],
      "title": "Arkansas",
      "vote_average": 6.1,
      "overview": "Kyle and Swin live by the orders of an Arkansas-based drug kingpin named Frog, whom they've never met. But when a deal goes horribly wrong, the consequences are deadly.",
      "release_date": "2020-07-16"
    },
    {
      "popularity": 34.54,
      "vote_count": 305,
      "video": false,
      "poster_path": "/MBiKqTsouYqAACLYNDadsjhhC0.jpg",
      "id": 486589,
      "adult": false,
      "backdrop_path": "/bga3i5jcejBekr2FCGJga1fYCh.jpg",
      "original_language": "en",
      "original_title": "Red Shoes and the Seven Dwarfs",
      "genre_ids": [16, 10749, 10751],
      "title": "Red Shoes and the Seven Dwarfs",
      "vote_average": 7.3,
      "overview": "Princes who have been turned into Dwarfs seek the red shoes of a lady in order to break the spell, although it will not be easy.",
      "release_date": "2019-07-25"
    },
    {
      "popularity": 33.973,
      "vote_count": 459,
      "video": false,
      "poster_path": "/9zrbgYyFvwH8sy5mv9eT25xsAzL.jpg",
      "id": 531454,
      "adult": false,
      "backdrop_path": "/jMO1icztaUUEUApdAQx0cZOt7b8.jpg",
      "original_language": "en",
      "original_title": "Eurovision Song Contest: The Story of Fire Saga",
      "genre_ids": [35, 10402],
      "title": "Eurovision Song Contest: The Story of Fire Saga",
      "vote_average": 6.5,
      "overview": "Two small-town aspiring musicians chase their pop star dreams at a global music competition, where high stakes, scheming rivals and onstage mishaps test their bond.",
      "release_date": "2020-06-26"
    }
  ],
  "page": 1,
  "total_results": 636,
  "dates": {
    "maximum": "2020-07-25",
    "minimum": "2020-06-07"
  },
  "total_pages": 32
}
